{
    "niv": {
        "branch": "master",
        "description": "Easy dependency management for Nix projects",
        "homepage": "https://github.com/nmattia/niv",
        "owner": "nmattia",
        "repo": "niv",
        "rev": "5830a4dd348d77e39a0f3c4c762ff2663b602d4c",
        "sha256": "1d3lsrqvci4qz2hwjrcnd8h5vfkg8aypq3sjd4g3izbc8frwz5sm",
        "type": "tarball",
        "url": "https://github.com/nmattia/niv/archive/5830a4dd348d77e39a0f3c4c762ff2663b602d4c.tar.gz",
        "url_template": "https://github.com/<owner>/<repo>/archive/<rev>.tar.gz"
    },
    "nixpkgs": {
        "branch": "nixpkgs-unstable",
        "description": "Nix Packages collection",
        "homepage": "",
        "owner": "NixOS",
        "repo": "nixpkgs",
        "rev": "5cb226a06c49f7a2d02863d0b5786a310599df6b",
        "sha256": "0dzz207swwm5m0dyibhxg5psccrcqfh1lzkmzzfns27wc4ria6z3",
        "type": "tarball",
        "url": "https://github.com/NixOS/nixpkgs/archive/5cb226a06c49f7a2d02863d0b5786a310599df6b.tar.gz",
        "url_template": "https://github.com/<owner>/<repo>/archive/<rev>.tar.gz"
    },
    "rust-overlay": {
        "branch": "master",
        "description": "Pure and reproducible nix overlay of binary distributed rust toolchains",
        "homepage": "",
        "owner": "oxalica",
        "repo": "rust-overlay",
        "rev": "8a2e5fa870df3d34667d28fb3383d19516d182e4",
        "sha256": "0k87yxy6886bhv3fcn89wi7nq8lxhxgiqcg1mgkvmj1mw5jlmr0v",
        "type": "tarball",
        "url": "https://github.com/oxalica/rust-overlay/archive/8a2e5fa870df3d34667d28fb3383d19516d182e4.tar.gz",
        "url_template": "https://github.com/<owner>/<repo>/archive/<rev>.tar.gz"
    }
}
